Deprivation
…
Deprivation

Elliot Meador

22/10/2019

Data

Data on deprivation comes from the English Indix of Multiple Deprivation (https://www.gov.uk/government/statistics/english-indices-of-deprivation-2019) and the Scottish Index of Multiple Deprivation (https://simd.scot/2016/#/simd2016/BTTTFTT/9/-4.0000/55.9000/). These data are aggregated at a similar small-area output (SMO), which allows us to get more granularity from the data across England and Scotland.

The scores, which are used in calculating the index, are used  not the index ranking. For instance, one score used to determine income deprivation is the percentatge of people within a SMO that are income deprived. Index rankings themselves are not appropriate for comparing places across the two indexes as they are relational within countries (not between).

We cover employment and income deprivation in the following sections.

## # A tibble: 33 x 2
##    name                  n
##    <chr>             <int>
##  1 Glasgow_City        746
##  2 City_of_Edinburgh   597
##  3 Fife                494
##  4 North_Lanarkshire   447
##  5 South_Lanarkshire   431
##  6 Aberdeenshire       340
##  7 Highland            312
##  8 Aberdeen_City       283
##  9 West_Lothian        239
## 10 Renfrewshire        225
## #  with 23 more rows
…
